Introduction to R
…
iris %>% filter(Sepal.Length < 5, Sepal.Width > 3.5) # You can filter the data frame.

##   Sepal.Length Sepal.Width Petal.Length Petal.Width Species
## 1          4.6         3.6          1.0         0.2  setosa
## 2          4.9         3.6          1.4         0.1  setosa
##   New_Numeric_Var_1 New_Numeric_Var_2
## 1               8.2          1.277774
## 2               8.5          1.361107

iris %>% rowwise() %>% summarise(Sepal.Area = Sepal.Length*Sepal.Width) # You can create new features

## # A tibble: 150 x 1
##    Sepal.Area
##         <dbl>
##  1       17.8
##  2       14.7
##  3       15.0
##  4       14.3
##  5       18  
##  6       21.1
##  7       15.6
##  8       17  
##  9       12.8
## 10       15.2
## # … with 140 more rows
